NOAA quarto simple - Soil
…
Soil

    Author

             jjh 

soil_full <- read.csv('soil_full.csv') %>%
  as_tibble()

soil_full

# A tibble: 71 × 5
   material range depth range_mean    mbc
   <chr>    <chr> <dbl> <chr>       <dbl>
 1 NDM      0-3     1.5 0-10       13323.
 2 HAHTM    0-5     2.5 0-10        5251.
 3 NDM      0-5     2.5 0-10        2253.
 4 HAHTM    0-6     3   0-10        3274.
 5 HAHTM    0-6     3   0-10        2881.
 6 HAHTM    0-9     4.5 0-10        1527.
 7 NDM      3-6     4.5 0-10        7314.
 8 HAHTM    0-13    6.5 0-10         896.
 9 HAHTM    0-13    6.5 0-10         581.
10 NDM      0-15    7.5 0-10        1252.
# ℹ 61 more rows
…
soil_full

# A tibble: 71 × 5
   material range depth range_mean    mbc
   <chr>    <chr> <dbl> <chr>       <dbl>
 1 NDM      0-3     1.5 0-10       13323.
 2 HAHTM    0-5     2.5 0-10        5251.
 3 NDM      0-5     2.5 0-10        2253.
 4 HAHTM    0-6     3   0-10        3274.
 5 HAHTM    0-6     3   0-10        2881.
 6 HAHTM    0-9     4.5 0-10        1527.
 7 NDM      3-6     4.5 0-10        7314.
 8 HAHTM    0-13    6.5 0-10         896.
 9 HAHTM    0-13    6.5 0-10         581.
10 NDM      0-15    7.5 0-10        1252.
# ℹ 61 more rows
…
