NOAA quarto simple - Supplementary Material II
…
poci_size.gg <-
  poci_size %>%
  mutate(size_cm = area*10000) %>%
  as_tibble() %>%
  mutate_at(vars(Site), factor)

poci_size.gg

# A tibble: 3,639 × 10
   layer level class    id Site  cover    area    enn  para size_cm
   <int> <chr> <int> <int> <fct> <chr>   <dbl>  <dbl> <dbl>   <dbl>
 1     1 patch     1     2 ana   coral 0.0165  0.111   42.0   165. 
 2     1 patch     1     3 ana   coral 0.0261  0.111   32.1   261. 
 3     1 patch     1     4 ana   coral 0.0162  0.0598  44.3   162. 
 4     1 patch     1     5 ana   coral 0.0149  0.230   38.6   149. 
 5     1 patch     1     6 ana   coral 0.00788 0.535   61.5    78.8
 6     1 patch     1     7 ana   coral 0.0148  0.532   41.1   148. 
 7     1 patch     1     8 ana   coral 0.0109  0.0598  50.6   109. 
 8     1 patch     1     9 ana   coral 0.0101  0.346   52.6   101. 
 9     1 patch     1    10 ana   coral 0.0262  0.192   38.4   262. 
10     1 patch     1    11 ana   coral 0.00620 0.137   71.6    62.0
# ℹ 3,629 more rows
…
Rows: 750 Columns: 12
── Column specification ────────────────────────────────────────────────────────
Delimiter: ","
chr (3): Site, cover, level
dbl (7): plot_id, class, layer, percentage_inside, clumpy, pd, pland
lgl (2): id, NA

ℹ Use `spec()` to retrieve the full column specification for this data.
ℹ Specify the column types or set `show_col_types = FALSE` to quiet this message.

p_cover

# A tibble: 750 × 13
# Groups:   Site [3]
   plot_id class Site  cover level layer id    percentage_inside clumpy    pd
   <fct>   <dbl> <fct> <fct> <chr> <dbl> <lgl>             <dbl>  <dbl> <dbl>
 1 1           1 ana   coral class     1 NA                100.   0.992  2.00
 2 1           0 man   coral class    NA NA                 NA   NA     NA   
 3 1           0 vhu   coral class     1 NA                100.   0.987 19.0 
 4 2           1 ana   coral class     1 NA                 99.9  0.990  8.01
 5 2           0 man   coral class    NA NA                 NA   NA     NA   
 6 2           0 vhu   coral class     1 NA                 99.9  0.987 20.0 
 7 3           1 ana   coral class     1 NA                100.   0.995  4.00
 8 3           0 man   coral class    NA NA                 NA   NA     NA   
 9 3           0 vhu   coral class     1 NA                100.   0.989 16.0 
10 4           1 ana   coral class     1 NA                100.   0.995  3.00
# ℹ 740 more rows
# ℹ 3 more variables: pland <dbl>, `NA` <lgl>, pland_decimal <dbl>
…
