NOAA quarto simple - Percent Cover and Bleaching in 2015
…
    Author

             jjh 

    Published

      April 15, 2023

rpn_bleach <- read.csv('rpn_bleach_2015.csv') %>%
  as_tibble() %>%
  mutate_at(vars(location, depth, transect, group, status), factor)

rpn_bleach

# A tibble: 1,512 × 7
   location depth transect point metric group status
   <fct>    <fct> <fct>    <int>  <int> <fct> <fct> 
 1 north    sh    one          1      0 PLOB  PB    
 2 north    sh    one          2     20 PLOB  PB    
 3 north    sh    one          3     40 PLOB  PB    
 4 north    sh    one          4     60 MA    HAL   
 5 north    sh    one          5     80 TURF  na    
 6 north    sh    one          6    100 TURF  na    
 7 north    sh    one          7    120 TURF  na    
 8 north    sh    one          8    140 PLOB  PB    
 9 north    sh    one          9    160 PLOB  PB    
10 north    sh    one         10    180 PLOB  PB    
# ℹ 1,502 more rows
…
