NOAA quarto simple - Percent Cover and Bleaching in 2015
…
Pocillopora

rpn_bleach <- read.csv('rpn_bleach_2015.csv') %>%
  as_tibble() %>%
  mutate_at(vars(location, depth, transect, group, status), factor)

rpn_bleach

# A tibble: 1,512 × 7
   location depth transect point metric group status
   <fct>    <fct> <fct>    <int>  <int> <fct> <fct> 
 1 north    sh    one          1      0 PLOB  PB    
 2 north    sh    one          2     20 PLOB  PB    
 3 north    sh    one          3     40 PLOB  PB    
 4 north    sh    one          4     60 MA    HAL   
 5 north    sh    one          5     80 TURF  na    
 6 north    sh    one          6    100 TURF  na    
 7 north    sh    one          7    120 TURF  na    
 8 north    sh    one          8    140 PLOB  PB    
 9 north    sh    one          9    160 PLOB  PB    
10 north    sh    one         10    180 PLOB  PB    
# ℹ 1,502 more rows
…
#{r} #rpn_crw.main <- write_csv(rpn_crw, 'rpn_crw.csv') #

rpn_crw.main <- read_csv('rpn_crw.csv')

Rows: 14005 Columns: 7
── Column specification ────────────────────────────────────────────────────────
Delimiter: ","
dbl (7): year, month, day, sst_min, sst_max, sst, dhw

ℹ Use `spec()` to retrieve the full column specification for this data.
ℹ Specify the column types or set `show_col_types = FALSE` to quiet this message.

rpn_crw.main

# A tibble: 14,005 × 7
    year month   day sst_min sst_max   sst   dhw
   <dbl> <dbl> <dbl>   <dbl>   <dbl> <dbl> <dbl>
 1  1985     1     1    24.1    24.2  24.1     0
 2  1985     1     2    24.2    24.3  24.2     0
 3  1985     1     3    24.3    24.3  24.3     0
 4  1985     1     4    24.4    24.4  24.4     0
 5  1985     1     5    24.5    24.6  24.5     0
 6  1985     1     6    25.2    25.3  25.3     0
 7  1985     1     7    25.0    25.2  25.2     0
 8  1985     1     8    25.7    25.9  25.9     0
 9  1985     1     9    26      26.2  26.2     0
10  1985     1    10    26.2    26.3  26.3     0
# ℹ 13,995 more rows

rpn_crw.main2 <- 
  rpn_crw.main %>%
  mutate(date = make_date(year, month, day)) 

#%>%
#  filter(date > 2015-01-01)

rpn_crw.main2

# A tibble: 14,005 × 8
    year month   day sst_min sst_max   sst   dhw date      
   <dbl> <dbl> <dbl>   <dbl>   <dbl> <dbl> <dbl> <date>    
 1  1985     1     1    24.1    24.2  24.1     0 1985-01-01
 2  1985     1     2    24.2    24.3  24.2     0 1985-01-02
 3  1985     1     3    24.3    24.3  24.3     0 1985-01-03
 4  1985     1     4    24.4    24.4  24.4     0 1985-01-04
 5  1985     1     5    24.5    24.6  24.5     0 1985-01-05
 6  1985     1     6    25.2    25.3  25.3     0 1985-01-06
 7  1985     1     7    25.0    25.2  25.2     0 1985-01-07
 8  1985     1     8    25.7    25.9  25.9     0 1985-01-08
 9  1985     1     9    26      26.2  26.2     0 1985-01-09
10  1985     1    10    26.2    26.3  26.3     0 1985-01-10
# ℹ 13,995 more rows

rpn_crw.main3 <- 
  rpn_crw.main2 %>%
  filter(date >= '2014-01-01',
         date <= '2015-12-31') %>% 
  dplyr::select(sst_max, dhw, date) %>%
  pivot_longer(!date, names_to = "metric", values_to = "value")

rpn_crw.main3

# A tibble: 1,460 × 3
   date       metric  value
   <date>     <chr>   <dbl>
 1 2014-01-01 sst_max  24.3
 2 2014-01-01 dhw       0  
 3 2014-01-02 sst_max  23.9
 4 2014-01-02 dhw       0  
 5 2014-01-03 sst_max  23.8
 6 2014-01-03 dhw       0  
 7 2014-01-04 sst_max  23.7
 8 2014-01-04 dhw       0  
 9 2014-01-05 sst_max  23.8
10 2014-01-05 dhw       0  
# ℹ 1,450 more rows

rpn_crw.main4 <- 
  rpn_crw.main3 %>%
  pivot_wider(names_from = metric, values_from = value)

rpn_crw.main4

# A tibble: 730 × 3
   date       sst_max   dhw
   <date>       <dbl> <dbl>
 1 2014-01-01    24.3     0
 2 2014-01-02    23.9     0
 3 2014-01-03    23.8     0
 4 2014-01-04    23.7     0
 5 2014-01-05    23.8     0
 6 2014-01-06    24.0     0
 7 2014-01-07    24.2     0
 8 2014-01-08    24.4     0
 9 2014-01-09    24.4     0
10 2014-01-10    24.4     0
# ℹ 720 more rows
…
