NOAA quarto simple - Percent Cover and Bleaching in 2015
…
rpn_bleach <- read.csv('rpn_coral_bleach.csv') %>%
  as_tibble() %>%
  #filter(group == "PLOB") %>%
  mutate_at(vars(location, depth, transect, species), factor) %>%
  mutate(
  bl = coral_count - bl_count,
  pb = coral_count - pb_count,
  p  = coral_count - p_count,
  h  = coral_count - h_count,
    )

rpn_bleach

# A tibble: 24 × 13
   species location depth transect bl_count pb_count p_count h_count coral_count
   <fct>   <fct>    <fct> <fct>       <int>    <int>   <int>   <int>       <int>
 1 plob    north    dp    one             0        5      87      12         104
 2 plob    north    dp    two             0       49      52      12         113
 3 plob    north    sh    one             0       40      28      15          83
 4 plob    north    sh    two             0       31      37      20          88
 5 plob    se       dp    one             0        0      23      11          34
 6 plob    se       dp    two             0        2       2       0          28
 7 plob    se       sh    one             0        0      29       6          35
 8 plob    se       sh    two             0        0       9       6          15
 9 plob    west     dp    one             0       70      17       2          89
10 plob    west     dp    two             0       55      16       2          73
# ℹ 14 more rows
# ℹ 4 more variables: bl <int>, pb <int>, p <int>, h <int>
…
