NOAA quarto simple - Coral Size
…
poci_size.gg <-
  poci_size %>%
  mutate(size_cm = area*10000) %>%
  as_tibble() %>%
  mutate_at(vars(Site), factor)

poci_size.gg

# A tibble: 3,639 × 10
   layer level class    id Site  cover    area    enn  para size_cm
   <int> <chr> <int> <int> <fct> <chr>   <dbl>  <dbl> <dbl>   <dbl>
 1     1 patch     1     2 ana   coral 0.0165  0.111   42.0   165. 
 2     1 patch     1     3 ana   coral 0.0261  0.111   32.1   261. 
 3     1 patch     1     4 ana   coral 0.0162  0.0598  44.3   162. 
 4     1 patch     1     5 ana   coral 0.0149  0.230   38.6   149. 
 5     1 patch     1     6 ana   coral 0.00788 0.535   61.5    78.8
 6     1 patch     1     7 ana   coral 0.0148  0.532   41.1   148. 
 7     1 patch     1     8 ana   coral 0.0109  0.0598  50.6   109. 
 8     1 patch     1     9 ana   coral 0.0101  0.346   52.6   101. 
 9     1 patch     1    10 ana   coral 0.0262  0.192   38.4   262. 
10     1 patch     1    11 ana   coral 0.00620 0.137   71.6    62.0
# ℹ 3,629 more rows
…
