NOAA quarto simple - Percent Cover
…
Rows: 750 Columns: 12
── Column specification ────────────────────────────────────────────────────────
Delimiter: ","
chr (3): Site, cover, level
dbl (7): plot_id, class, layer, percentage_inside, clumpy, pd, pland
lgl (2): id, NA

ℹ Use `spec()` to retrieve the full column specification for this data.
ℹ Specify the column types or set `show_col_types = FALSE` to quiet this message.

p_cover

# A tibble: 750 × 13
# Groups:   Site [3]
   plot_id class Site  cover level layer id    percen…¹ clumpy    pd pland `NA` 
   <fct>   <dbl> <fct> <fct> <chr> <dbl> <lgl>    <dbl>  <dbl> <dbl> <dbl> <lgl>
 1 1           1 ana   coral class     1 NA       100.   0.992  2.00  1.24 NA   
 2 1           0 man   coral class    NA NA        NA   NA     NA     0    NA   
 3 1           0 vhu   coral class     1 NA       100.   0.987 19.0  36.4  NA   
 4 2           1 ana   coral class     1 NA        99.9  0.990  8.01  6.01 NA   
 5 2           0 man   coral class    NA NA        NA   NA     NA     0    NA   
 6 2           0 vhu   coral class     1 NA        99.9  0.987 20.0  24.0  NA   
 7 3           1 ana   coral class     1 NA       100.   0.995  4.00  3.22 NA   
 8 3           0 man   coral class    NA NA        NA   NA     NA     0    NA   
 9 3           0 vhu   coral class     1 NA       100.   0.989 16.0  30.0  NA   
10 4           1 ana   coral class     1 NA       100.   0.995  3.00  3.67 NA   
# … with 740 more rows, 1 more variable: pland_decimal <dbl>, and abbreviated
#   variable name ¹​percentage_inside
…
