NOAA quarto simple - Percent Cover Transects & Photos 2016
…
Percent Cover Transects & Photos 2016

    Author

             jjh 

rpn_ana_sh <- read.csv('ana_sh.csv') %>%
  as_tibble() %>%
  mutate_at(vars(location, depth, transect, photo, group), factor)

rpn_ana_sh

# A tibble: 420 × 7
   location depth transect photo group    successes failures
   <fct>    <fct> <fct>    <fct> <fct>        <int>    <int>
 1 north    sh    t1       t1_1  abiotic          0      100
 2 north    sh    t1       t1_1  biotic           0      100
 3 north    sh    t1       t1_1  macro            2       98
 4 north    sh    t1       t1_1  non-reef        12       88
 5 north    sh    t1       t1_1  plob            85       15
 6 north    sh    t1       t1_1  poci             0      100
 7 north    sh    t1       t1_1  turf             1       99
 8 north    sh    t1       t1_10 abiotic          0      100
 9 north    sh    t1       t1_10 biotic           0      100
10 north    sh    t1       t1_10 macro           13       87
# ℹ 410 more rows

rpn_ana_md <- read.csv('ana_md.csv') %>%
  as_tibble() %>%
  mutate_at(vars(location, depth, transect, photo, group), factor)

rpn_ana_md

# A tibble: 420 × 7
   location depth transect photo group    successes failures
   <fct>    <fct> <fct>    <fct> <fct>        <int>    <int>
 1 north    md    t1       t1_1  abiotic          0      100
 2 north    md    t1       t1_1  biotic           0      100
 3 north    md    t1       t1_1  macro            8       92
 4 north    md    t1       t1_1  non-reef        27       73
 5 north    md    t1       t1_1  plob            42       58
 6 north    md    t1       t1_1  poci             5       95
 7 north    md    t1       t1_1  turf            18       82
 8 north    md    t1       t1_10 abiotic          0      100
 9 north    md    t1       t1_10 biotic           0      100
10 north    md    t1       t1_10 macro            8       92
# ℹ 410 more rows

rpn_ana_dp <- read.csv('ana_dp.csv') %>%
  as_tibble() %>%
  mutate_at(vars(location, depth, transect, photo, group), factor)

rpn_ana_dp

# A tibble: 420 × 7
   location depth transect photo group    successes failures
   <fct>    <fct> <fct>    <fct> <fct>        <int>    <int>
 1 north    dp    t1       t1_1  abiotic          1       99
 2 north    dp    t1       t1_1  biotic           0      100
 3 north    dp    t1       t1_1  macro           17       83
 4 north    dp    t1       t1_1  non-reef        15       85
 5 north    dp    t1       t1_1  plob            62       38
 6 north    dp    t1       t1_1  poci             5       95
 7 north    dp    t1       t1_1  turf             0      100
 8 north    dp    t1       t1_10 abiotic          0      100
 9 north    dp    t1       t1_10 biotic           0      100
10 north    dp    t1       t1_10 macro           25       75
# ℹ 410 more rows

rpn_north <- bind_rows(rpn_ana_sh, rpn_ana_md, rpn_ana_dp) %>%
  as_tibble() %>%
  mutate_at(vars(location, depth, transect, photo, group), factor)

rpn_north

# A tibble: 1,260 × 7
   location depth transect photo group    successes failures
   <fct>    <fct> <fct>    <fct> <fct>        <int>    <int>
 1 north    sh    t1       t1_1  abiotic          0      100
 2 north    sh    t1       t1_1  biotic           0      100
 3 north    sh    t1       t1_1  macro            2       98
 4 north    sh    t1       t1_1  non-reef        12       88
 5 north    sh    t1       t1_1  plob            85       15
 6 north    sh    t1       t1_1  poci             0      100
 7 north    sh    t1       t1_1  turf             1       99
 8 north    sh    t1       t1_10 abiotic          0      100
 9 north    sh    t1       t1_10 biotic           0      100
10 north    sh    t1       t1_10 macro           13       87
# ℹ 1,250 more rows

rpn_north_plob <- rpn_north %>%  
  filter(group == "plob") %>%
  group_by(depth, transect, photo)

rpn_north_plob

# A tibble: 180 × 7
# Groups:   depth, transect, photo [179]
   location depth transect photo group successes failures
   <fct>    <fct> <fct>    <fct> <fct>     <int>    <int>
 1 north    sh    t1       t1_1  plob         85       15
 2 north    sh    t1       t1_10 plob         81       19
 3 north    sh    t1       t1_11 plob         81       19
 4 north    sh    t1       t1_12 plob         56       44
 5 north    sh    t1       t1_13 plob         68       32
 6 north    sh    t1       t1_14 plob         93        7
 7 north    sh    t1       t1_15 plob         57       43
 8 north    sh    t1       t1_2  plob         81       19
 9 north    sh    t1       t1_3  plob         82       18
10 north    sh    t1       t1_4  plob         84       16
# ℹ 170 more rows
…
Analysis of Deviance Table (Type III tests)

Response: cbind(successes, failures)
      LR Chisq Df Pr(>Chisq)    
depth   221.54  2  < 2.2e-16 ***
---
Signif. codes:  0 '***' 0.001 '**' 0.01 '*' 0.05 '.' 0.1 ' ' 1

rpn_north_poci <- rpn_north %>%  
  filter(group == "poci") %>%
  group_by(depth, transect, photo)

rpn_north_poci

# A tibble: 180 × 7
# Groups:   depth, transect, photo [179]
   location depth transect photo group successes failures
   <fct>    <fct> <fct>    <fct> <fct>     <int>    <int>
 1 north    sh    t1       t1_1  poci          0      100
 2 north    sh    t1       t1_10 poci          0      100
 3 north    sh    t1       t1_11 poci          0      100
 4 north    sh    t1       t1_12 poci          0      100
 5 north    sh    t1       t1_13 poci          0      100
 6 north    sh    t1       t1_14 poci          0      100
 7 north    sh    t1       t1_15 poci          0      100
 8 north    sh    t1       t1_2  poci          0      100
 9 north    sh    t1       t1_3  poci          0      100
10 north    sh    t1       t1_4  poci          0      100
# ℹ 170 more rows
…
