NOAA quarto simple - SPPA
…
    Published

      July 2, 2023

Quadrat Count

Vaihu

vhu_csv <- read.csv("vhu_centroids.csv")

vhu_csv2 <- as_tibble(vhu_csv)

vhu_csv2 

# A tibble: 3,131 × 6
   layer level class    id       x     y
   <int> <chr> <int> <int>   <dbl> <dbl>
 1     1 patch     0     1 0.0775   24.7
 2     1 patch     0     2 0.0588   24.0
 3     1 patch     0     3 0.0368   23.7
 4     1 patch     0     4 0.0318   23.4
 5     1 patch     0     5 0.0501   23.1
 6     1 patch     0     6 0.0125   22.8
 7     1 patch     0     7 0.0794   21.7
 8     1 patch     0     8 0.00269  21.0
 9     1 patch     0     9 0.0485   20.8
10     1 patch     0    10 0.0824   16.7
# ℹ 3,121 more rows
…
Quadrats: 10 by 25 grid of tiles

The test statistic suggests highly a non-random point pattern at the scale of the quadrat defined. Note that this test is more akin to a first-order point pattern analysis because it is based on the dispersion of points among sampling quadrats.

West - Manavai

man_csv <- read.csv("man_centroids.csv")

man_csv2 <- as_tibble(man_csv)

man_csv2 

# A tibble: 372 × 6
   layer level class    id       x     y
   <int> <chr> <int> <int>   <dbl> <dbl>
 1     1 patch     0     1 0.0579  20.6 
 2     1 patch     0     2 0.0812  20.5 
 3     1 patch     0     3 0.00173 19.4 
 4     1 patch     0     4 0.0281  12.7 
 5     1 patch     0     5 0.0164  12.6 
 6     1 patch     0     6 0.0550  10.8 
 7     1 patch     0     7 0.0111   8.88
 8     1 patch     0     8 0.0366   8.51
 9     1 patch     0     9 0.0589  13.3 
10     1 patch     0    10 0.0825  13.0 
# ℹ 362 more rows
…
data:  man_corals
X2 = 1394.1, df = 249, p-value < 2.2e-16
alternative hypothesis: two.sided

Quadrats: 10 by 25 grid of tiles

North - Anakena

ana_csv <- read.csv("ana_centroids.csv")

ana_csv2 <- as_tibble(ana_csv)

ana_csv2 

# A tibble: 136 × 6
   layer level class    id     x      y
   <int> <chr> <int> <int> <dbl>  <dbl>
 1     1 patch     1     1 0.330 23.4  
 2     1 patch     1     2 0.343 23.7  
 3     1 patch     1     3 0.360  1.54 
 4     1 patch     1     4 0.477 11.2  
 5     1 patch     1     5 0.494 12.6  
 6     1 patch     1     6 0.547 17.4  
 7     1 patch     1     7 0.557  1.52 
 8     1 patch     1     8 0.587 16.3  
 9     1 patch     1     9 0.779  1.81 
10     1 patch     1    10 0.749  0.270
# ℹ 126 more rows
…
