NOAA quarto simple - Soil
…
Soil

    Author

             jjh 

soil_full <- read.csv('soil_full.csv') %>%
  as_tibble()

soil_full

# A tibble: 71 × 5
   material range depth range_mean    mbc
   <chr>    <chr> <dbl> <chr>       <dbl>
 1 NDM      0-3     1.5 0-10       13323.
 2 HAHTM    0-5     2.5 0-10        5251.
 3 NDM      0-5     2.5 0-10        2253.
 4 HAHTM    0-6     3   0-10        3274.
 5 HAHTM    0-6     3   0-10        2881.
 6 HAHTM    0-9     4.5 0-10        1527.
 7 NDM      6-Mar   4.5 0-10        7314.
 8 HAHTM    0-13    6.5 0-10         896.
 9 HAHTM    0-13    6.5 0-10         581.
10 NDM      0-15    7.5 0-10        1252.
# ℹ 61 more rows
…
soil_full <- read.csv('soil_full.csv') %>%
  as_tibble()

soil_full

# A tibble: 71 × 5
   material range depth range_mean    mbc
   <chr>    <chr> <dbl> <chr>       <dbl>
 1 NDM      0-3     1.5 0-10       13323.
 2 HAHTM    0-5     2.5 0-10        5251.
 3 NDM      0-5     2.5 0-10        2253.
 4 HAHTM    0-6     3   0-10        3274.
 5 HAHTM    0-6     3   0-10        2881.
 6 HAHTM    0-9     4.5 0-10        1527.
 7 NDM      6-Mar   4.5 0-10        7314.
 8 HAHTM    0-13    6.5 0-10         896.
 9 HAHTM    0-13    6.5 0-10         581.
10 NDM      0-15    7.5 0-10        1252.
# ℹ 61 more rows
…
4/3/2023

soil <- read.csv('soil_main.csv') %>%
  as_tibble() %>%
    mutate_at(vars(material, depth_range, depth_cat), factor)

soil

# A tibble: 70 × 5
   material depth_range depth_cat depth_mean   mbc
   <fct>    <fct>       <fct>          <dbl> <dbl>
 1 HAHTM    0-11        1                6.5  896.
 2 HAHTM    11-26       2               20.5  262.
 3 HAHTM    26-38       3               35.5  231.
 4 HAHTM    38-54       4               53    121.
 5 HAHTM    54-67       5               70    146.
 6 HAHTM    67-81       6               80.5  212.
 7 HAHTM    81-96       7               94    153.
 8 HAHTM    0-11        1                3   3274.
 9 HAHTM    11-26       2               11    197.
10 HAHTM    26-38       3               22    144.
# ℹ 60 more rows
…
