NOAA quarto simple - Soil
…
Soil

    Author

             jjh 

April 4, 2023

soil <- read.csv('soil_main.csv') %>%
  as_tibble() %>%
    mutate_at(vars(material, depth_mean, depth_cat), factor)

soil

# A tibble: 70 × 4
   material depth_cat depth_mean   mbc
   <fct>    <fct>     <fct>      <dbl>
 1 HAHTM    1         6.5         896.
 2 HAHTM    2         20.5        262.
 3 HAHTM    3         35.5        231.
 4 HAHTM    4         53          121.
 5 HAHTM    5         70          146.
 6 HAHTM    6         80.5        212.
 7 HAHTM    7         94          153.
 8 HAHTM    1         3          3274.
 9 HAHTM    2         11          197.
10 HAHTM    3         22          144.
# ℹ 60 more rows
…
